…
Question 1: How many single family homes are in each neighborhood?

• Create a table of the count of single family homes by neighborhood

``` r
dat<- tbl_df(dat)
singles <- filter(dat, LandUse == "Single Family")
datGrouped <- group_by(singles, Nhood)
summarize(datGrouped, total = n())
```

    ## # A tibble: 31 × 2
    ##             Nhood total
    ##            <fctr> <int>
    ## 1        Brighton  1398
    ## 2  Court-Woodlawn  1859
    ## 3        Downtown     1
    ## 4        Eastwood  3605
    ## 5         Elmwood   909
    ## 6    Far Westside   471
    ## 7    Hawley-Green    52
    ## 8       Lakefront    24
    ## 9    Lincoln Hill   580
    ## 10    Meadowbrook  1721
    ## # ... with 21 more rows
…
